<svg width="126" height="185" viewBox="0 0 126 185" fill="none" xmlns="http://www.w3.org/2000/svg">
<path fill-rule="evenodd" clip-rule="evenodd" d="M123.116 171.188C122.872 166.626 122.572 162.067 122.213 157.513C121.497 148.441 120.559 139.362 118.999 130.394C117.46 121.545 115.306 112.942 112.202 104.51C110.763 100.598 109.204 97.2612 106.942 93.7447C104.803 90.4199 102.074 88.1671 98.6735 86.1601C95.6099 84.3518 92.0509 81.2144 89.1126 79.1894C87.8859 78.3441 85.3621 78.4004 84.521 77.1499C83.4194 75.5124 84.1336 73.006 83.0232 71.3738C81.7539 69.5077 79.9757 68.058 77.9705 67.0048C75.782 65.5152 73.2043 64.841 70.6197 64.9338C66.8084 64.7015 62.9698 65.921 60.5229 69.0391C59.3019 70.5952 58.5889 72.3905 58.4903 74.3784C58.4646 74.8955 58.6298 75.3032 58.9018 75.5975C58.7406 75.8143 58.58 76.0312 58.4206 76.2493C57.9201 75.5042 56.7502 75.1083 55.9706 75.6706C53.4202 77.5107 50.6637 78.9739 47.7544 80.0464C47.0737 79.7227 46.2497 79.8726 45.6666 80.4011C45.43 80.6154 45.179 80.7987 44.9166 80.9544C43.8379 81.2483 42.7425 81.4938 41.6308 81.6836C41.2828 81.7429 40.988 81.9415 40.7644 82.2092C40.4331 81.8979 39.9777 81.7484 39.4692 81.9433C33.5978 84.1929 28.053 87.6877 23.8384 92.4225C19.1691 97.6679 16.7167 104.193 14.8496 110.878C12.8285 118.114 11.5369 125.531 10.452 132.96C9.3528 140.488 8.27009 148.045 7.51378 155.616C7.08814 159.876 6.92579 164.176 7.11847 168.455C7.2145 170.594 7.40886 172.726 7.7184 174.844C7.79054 175.339 7.86605 175.91 7.98766 176.48C7.61808 176.408 7.17789 176.722 7.25279 177.225C7.77446 180.725 11.9855 181.745 14.8898 182.148C19.6404 182.808 24.4157 183.173 29.212 183.201C33.9252 183.229 38.6377 182.925 43.3412 182.653C48.1633 182.373 52.9853 182.093 57.8073 181.809C77.1271 180.67 96.4479 179.544 115.768 178.405C117.533 178.301 119.548 178.16 121.06 177.131C123.133 175.721 123.239 173.479 123.116 171.188V171.188Z" fill="white"/>
<path fill-rule="evenodd" clip-rule="evenodd" d="M28.9334 132.031C28.8663 131.904 29.0219 131.791 29.1252 131.882C31.4705 133.951 32.6984 137.273 32.9559 140.344C33.2287 143.6 32.8419 146.972 32.6941 150.227C32.5296 153.853 32.3818 157.48 32.181 161.104C31.9772 164.781 31.7576 168.456 31.5693 172.134L31.1458 180.407V180.407C31.1008 181.288 31.1984 182.373 30.8617 183.195C30.34 184.471 28.7905 184.274 28.4648 183.207L28.4546 183.172L28.4249 183.195C28.1376 182.235 28.3526 181.094 28.4013 180.1L28.845 171.062V171.062C29.1585 164.673 29.4381 158.284 29.7748 151.896L29.8893 149.767C30.0467 146.901 30.1674 144.042 30.2643 141.177L30.2958 140.221C30.3878 137.344 30.3148 134.628 28.9334 132.031ZM85.7887 78.9939C87.0953 78.8692 88.082 79.3047 89.2682 79.7634C89.785 79.9631 90.2744 80.1939 90.7701 80.4328C91.3908 80.7319 91.7899 81.2608 92.1722 81.82L92.3765 82.1213C93.968 84.465 95.0386 87.1689 96.2466 89.7205C97.6597 92.7054 99.0868 95.6838 100.47 98.6829L101.152 100.16C101.493 100.899 101.834 101.639 102.169 102.38L102.748 103.671C103.329 104.98 103.851 106.365 103.022 107.715C102.251 108.971 100.884 109.943 99.8021 110.913C98.8994 111.723 97.9965 112.533 97.0933 113.343C98.9602 115.222 100.213 117.588 100.95 120.125C101.997 119.687 103.274 119.603 104.357 119.413C105.872 119.148 106.057 121.453 104.627 121.425C103.572 121.404 102.333 121.513 101.25 121.289C101.438 122.123 101.574 122.969 101.661 123.818C102.116 128.266 101.122 132.741 100.085 137.044L99.9992 137.398C98.8727 142.056 97.8046 146.727 96.849 151.424C95.8913 156.131 95.0297 160.858 94.265 165.6C93.4866 170.428 92.9358 175.282 92.3439 180.135C92.2543 180.869 91.7945 181.499 90.987 181.499C90.3143 181.499 89.5455 180.868 89.63 180.135C90.2408 174.85 91.1071 169.593 91.9677 164.344C93.4501 155.306 95.3157 146.346 97.4621 137.445L97.837 135.894C98.8027 131.874 99.6787 127.732 99.1944 123.585C98.7998 120.208 97.3952 116.608 94.6189 114.511L94.5344 114.447C93.8859 113.969 93.6364 113.055 94.2751 112.426C94.6815 112.025 95.0885 111.625 95.4956 111.225L97.9395 108.827L98.4322 108.343C98.843 107.939 99.2558 107.539 99.6809 107.15C99.9383 106.915 100.636 106.467 100.687 106.081C100.72 105.829 100.423 105.386 100.303 105.154L99.7509 104.034V104.034C99.4377 103.396 99.1342 102.754 98.8283 102.112C98.1945 100.782 97.5515 99.4569 96.9315 98.1208L93.2065 90.0983V90.0983C92.1556 87.835 91.2195 85.4456 89.8456 83.3532L89.5748 82.9454C89.3487 82.6019 89.1489 82.2713 89.006 81.8513C88.8686 81.4472 88.6962 81.0035 88.4422 80.6586C87.8472 79.8493 86.7098 79.3903 85.7582 79.2208C85.6207 79.1961 85.6706 79.0053 85.7887 78.9939ZM57.1392 76.8867C57.2219 76.8867 57.2344 77.0054 57.1582 77.0285C56.0101 77.3755 54.913 77.9354 54.0179 78.7437C53.5896 79.1304 53.1585 79.5693 52.8941 80.0899C52.7929 80.2892 52.7369 80.4996 52.6959 80.7178L52.6828 80.7908C52.6146 81.185 52.5169 81.4045 52.3176 81.7201L52.2835 81.7736C51.1459 83.5392 50.3487 85.5004 49.6198 87.464L48.0325 91.7454V91.7454L46.4462 96.0274C45.9351 97.4071 45.4236 98.7869 44.9124 100.167C44.63 100.928 44.3396 101.687 44.0493 102.445C43.9237 102.774 43.7886 103.1 43.6738 103.433C43.658 103.478 43.6078 103.752 43.5701 103.819L43.5829 103.841V103.841C43.9029 104.382 44.7562 104.834 45.2399 105.227L46.9053 106.581V106.581C48.0928 107.546 49.3107 108.484 50.4625 109.492C51.1861 110.125 50.7359 111.259 49.9291 111.523C48.5769 111.966 47.2522 112.496 45.9204 112.997C45.3823 113.199 44.8221 113.375 44.2904 113.598L43.9667 113.739C43.8403 113.796 43.9011 113.795 43.9061 114.03C43.9112 114.276 43.9806 114.532 44.0204 114.774C44.469 117.5 44.9446 120.222 45.4465 122.939C47.2219 132.547 49.3431 142.085 51.7623 151.549C52.9842 156.329 54.2946 161.085 55.5434 165.857C56.789 170.617 58.428 175.308 59.993 179.97C60.4346 181.285 58.3606 181.851 57.9299 180.542C56.1263 175.059 54.4763 169.529 52.7724 164.015C49.745 154.218 47.3593 144.208 45.2493 134.174C44.2036 129.201 43.2471 124.208 42.3808 119.2C42.2167 118.252 42.0559 117.304 41.8984 116.355L41.6688 114.958C41.5114 113.963 41.4217 112.927 42.1913 112.139C42.9428 111.37 44.2328 111.098 45.2217 110.738L45.2935 110.711C45.9226 110.475 46.5564 110.248 47.1878 110.013C46.2578 109.277 45.3393 108.525 44.4116 107.79C43.6632 107.196 42.9031 106.615 42.1654 106.008C41.5572 105.508 41.0613 104.865 40.9979 104.051C40.9332 103.219 41.2879 102.447 41.574 101.684L41.6015 101.61C41.8824 100.848 42.1641 100.086 42.4529 99.3275L44.2403 94.6292V94.6292C45.3762 91.6438 46.4641 88.6341 47.6587 85.6719C48.1314 84.4996 48.6465 83.3457 49.2551 82.2376C49.5486 81.7033 49.8634 81.1803 50.2054 80.676C50.5886 80.1104 50.9364 79.8347 51.5302 79.5226C52.4797 79.0237 53.2248 78.1871 54.1782 77.6728C55.1141 77.1679 56.0768 76.8984 57.1392 76.8867ZM60.2215 71.5604C60.2578 71.4978 60.354 71.5257 60.3552 71.5969C60.38 73.0807 60.0293 74.5969 59.8135 76.064C59.5967 77.5363 59.5272 79.0904 59.2137 80.5471C59.2072 80.6149 59.1941 80.6818 59.1757 80.7474L59.1607 80.7974V80.7974C59.0283 81.2055 58.6842 81.5514 58.2619 81.6595C58.3947 82.399 58.5198 83.1398 58.6251 83.8846C58.8058 85.1648 58.9707 86.4469 59.133 87.7293L59.3272 89.2684C59.5105 90.7189 59.6888 92.17 59.8651 93.6213C60.3134 93.8097 60.7709 93.9652 61.2394 94.0999C62.3184 94.4102 63.4236 94.5365 64.5371 94.6462C66.8048 94.8698 69.0898 94.9734 71.3654 95.1003L71.8529 95.1279C74.4113 95.2753 76.9837 95.3014 79.5357 95.0376C80.8011 94.9067 82.0566 94.6872 83.2906 94.3761C83.9177 94.218 84.5271 93.9818 85.1529 93.8273C85.3605 93.776 85.5459 93.6578 85.7539 93.5315C85.8463 93.4142 85.9759 93.3254 86.1446 93.2911L86.1904 93.2831V93.2831L86.2356 93.2764L86.2513 93.2693L86.25 93.2743C86.3781 93.2569 86.4997 93.257 86.6144 93.2727C86.66 92.1412 86.7095 91.0097 86.7715 89.8785C86.938 86.8402 87.3977 83.6708 86.7841 80.659C86.7636 80.5577 86.9007 80.522 86.9363 80.6168C88.1404 83.8052 88.0051 87.2916 88.0658 90.6473C88.125 93.929 88.0892 97.213 88.073 100.495C88.3068 100.596 88.5155 100.731 88.6807 100.921C89.0108 101.302 89.1057 101.963 88.6807 102.33C88.4923 102.492 88.2839 102.605 88.0627 102.684C88.0509 105.535 88.0308 108.387 88.0024 111.239C88.5419 111.658 88.5923 112.652 87.982 113.066C87.8804 122.301 87.7135 131.536 87.575 140.77L87.2849 160.142V160.142C87.2463 162.723 87.1823 165.304 87.1593 167.885L87.1776 167.892V167.892L87.2418 167.922C87.3499 167.973 87.5107 168.055 87.5441 168.14C87.5528 168.162 87.5551 168.177 87.5541 168.188C87.7311 168.213 87.9065 168.297 88.0583 168.442C88.4329 168.8 88.3568 169.339 88.0583 169.703L87.9785 169.801V169.801C87.7924 170.028 87.439 170.115 87.1505 170.069C87.1534 171.68 87.1636 173.291 87.1586 174.902C87.1569 175.394 87.1495 175.886 87.1411 176.378L87.1209 177.557C87.1075 178.231 87.0482 179.086 86.3621 179.389C85.5882 179.73 84.8942 179.45 84.5809 178.66C84.496 178.446 84.5142 178.247 84.5452 178.035C84.5355 177.717 84.4861 177.349 84.4922 177.054L84.5178 175.824V175.824C84.5217 175.635 84.5294 175.445 84.5348 175.255L84.5124 175.258V175.258C81.7624 175.392 78.9932 175.326 76.2388 175.325L75.0138 175.327C73.9916 175.327 72.9673 175.322 71.9466 175.283L71.5641 175.266C70.7999 175.23 69.9963 175.219 69.2041 175.15C69.3051 175.967 69.3994 176.785 69.4835 177.604C69.5632 178.38 68.7659 179.04 68.0548 179.04C67.2103 179.04 66.7272 178.373 66.6261 177.604C66.1489 173.978 65.9536 170.317 65.4976 166.689C65.0892 163.439 64.7351 160.181 64.3751 156.925L64.2549 155.839C62.9376 143.989 61.6587 132.134 60.4355 120.274L59.8659 114.73C59.2906 109.141 58.712 103.553 58.2241 97.9564C57.945 94.7568 57.6879 91.5565 57.4459 88.3538C57.2684 86.0009 57.1569 83.6611 57.0843 81.3128C56.798 81.0167 56.6545 80.5845 56.7813 80.138C56.8554 79.8775 56.9417 79.6185 57.0326 79.3598C57.027 79.1057 57.021 78.8516 57.0161 78.5972C57.0115 78.3564 57.2547 78.2325 57.4494 78.2723C57.8032 77.4113 58.1928 76.5577 58.518 75.705C59.0443 74.3247 59.478 72.8374 60.2215 71.5604ZM30.8304 86.478C36.3318 83.0127 42.8804 80.5191 49.4393 80.7876C49.5885 80.7937 49.6304 81.0222 49.4756 81.0568C45.9771 81.8419 42.4401 82.7983 39.128 84.1901C35.8062 85.5861 32.6477 87.4658 29.8345 89.7246C24.6442 93.8923 20.6099 99.3132 17.9534 105.424C16.3975 109.003 15.3068 112.782 14.3544 116.563C13.3466 120.564 12.516 124.608 11.8254 128.676C10.4614 136.712 9.66722 144.837 9.24465 152.976C8.81472 161.255 8.99193 169.539 8.6853 177.82C8.63231 179.254 6.59219 179.226 6.4885 177.82C5.79375 168.406 6.17865 158.841 6.82116 149.434C7.39889 140.977 8.40777 132.538 10.0324 124.217L10.1739 123.496C11.6926 115.798 13.5245 107.913 17.1961 100.941C20.3307 94.989 25.17 90.0438 30.8304 86.478ZM107.226 123.271C107.255 123.188 107.363 123.189 107.392 123.271C108.019 125.035 108.042 127.026 108.208 128.887L108.222 129.029C108.381 130.726 108.502 132.425 108.614 134.125L108.655 134.762C109.105 141.697 109.666 148.625 110.512 155.524C111.355 162.397 112.495 169.222 113.728 176.033C113.866 176.791 113.531 177.564 112.74 177.782C112.043 177.975 111.147 177.543 111 176.789C110.234 172.879 109.616 168.965 109.063 165.021C108.091 158.077 107.366 151.101 106.9 144.104C106.666 140.59 106.521 137.077 106.464 133.556C106.438 131.922 106.48 130.284 106.567 128.651L106.587 128.275C106.683 126.607 106.673 124.862 107.226 123.271ZM47.7797 167.445C47.8532 167.405 47.9442 167.487 47.8976 167.563C46.8324 169.303 45.3912 170.804 43.9984 172.282C42.5423 173.828 41.1222 175.421 39.6366 176.936C38.5633 178.031 36.8367 176.265 37.9695 175.26C39.5622 173.848 41.2269 172.507 42.848 171.126L43.5569 170.522C44.8861 169.393 46.2546 168.275 47.7797 167.445ZM98.3755 166.573C98.296 166.421 98.4776 166.297 98.6011 166.398C99.4603 167.101 100.23 167.938 101.06 168.679C101.882 169.414 102.734 170.098 103.61 170.766C104.489 171.437 105.388 172.081 106.31 172.69C107.076 173.195 107.864 173.6 108.666 174.019C109.037 174.067 109.381 174.25 109.656 174.597C110.091 175.146 110.137 176.182 109.534 176.658L109.425 176.744V176.744C108.721 177.3 107.885 177.368 107.192 176.744C106.419 176.047 105.687 175.281 104.944 174.544L104.721 174.325C103.922 173.544 103.143 172.739 102.408 171.897L101.743 171.137C100.51 169.723 99.2255 168.199 98.3755 166.573ZM94.4174 85.0533C94.2745 84.9581 94.3626 84.7019 94.539 84.7631L94.8626 84.8755C96.2147 85.3477 97.6064 85.8715 98.834 86.5986C100.153 87.3798 101.371 88.3106 102.535 89.3091C104.944 91.3758 106.993 93.9173 108.735 96.5663C112.229 101.882 114.39 107.97 116.135 114.061C117.996 120.555 119.428 127.19 120.598 133.843C121.786 140.605 122.703 147.427 123.305 154.267C123.602 157.636 123.801 161.007 123.902 164.388C123.953 166.128 123.951 167.866 123.937 169.606C123.933 170.053 123.936 170.5 123.941 170.947L123.958 172.289C123.967 173.138 124.069 174.029 123.868 174.858C123.545 176.192 121.35 175.943 121.422 174.58C121.356 174.126 121.354 173.657 121.371 173.187C121.36 173.127 121.349 173.065 121.336 173.002C121.3 172.822 121.331 172.655 121.401 172.511C121.413 172.286 121.423 172.062 121.427 171.842C121.441 170.946 121.44 170.054 121.416 169.158C121.364 167.27 121.289 165.382 121.213 163.494C121.063 159.723 120.853 155.949 120.549 152.187C119.49 139.091 117.255 125.92 113.502 113.32C111.758 107.469 109.355 101.726 105.908 96.6699C104.378 94.4254 102.651 92.3522 100.737 90.428C98.8116 88.4918 96.6894 86.5656 94.4174 85.0533ZM68.4431 169.477L68.7032 171.369C68.8332 172.314 68.962 173.261 69.0842 174.207C69.9145 174.093 70.7639 174.045 71.5641 173.974C72.9647 173.849 74.375 173.789 75.7798 173.73C78.6849 173.61 81.6044 173.401 84.5124 173.416C84.5422 173.416 84.5704 173.418 84.5986 173.42L84.7429 169.689V169.689L82.6997 169.685V169.685C80.9687 169.683 79.2379 169.668 77.5069 169.653C75.9479 169.64 74.3883 169.637 72.8295 169.605L72.1615 169.589C70.9794 169.557 69.6742 169.623 68.4431 169.477ZM84.9143 164.061C84.831 164.071 84.7461 164.079 84.6559 164.083C84.2512 164.1 83.8434 164.088 83.4384 164.092C82.5761 164.099 81.714 164.105 80.8515 164.105C79.1269 164.105 77.4024 164.115 75.6781 164.136C73.903 164.158 72.1291 164.189 70.3538 164.192C69.4936 164.194 68.6362 164.171 67.7764 164.147C67.9154 165.375 68.0608 166.602 68.2213 167.827C69.5566 167.645 70.9927 167.737 72.2977 167.724L72.4671 167.722C74.2482 167.691 76.0309 167.714 77.8125 167.716C79.6452 167.718 81.4778 167.724 83.3107 167.739L84.8164 167.752V167.752L84.8193 167.676V167.676C84.8634 166.472 84.8919 165.267 84.9143 164.061ZM67.1139 158.186C67.2809 159.635 67.4376 161.088 67.5973 162.539C67.7034 162.523 67.811 162.509 67.9205 162.497C68.7819 162.407 69.6414 162.329 70.5058 162.275C72.2291 162.168 73.9521 162.111 75.6781 162.065C77.453 162.017 79.2281 161.98 81.0036 161.955C81.8662 161.943 82.728 161.944 83.5906 161.95C83.9953 161.953 84.4041 161.94 84.8079 161.967C84.856 161.97 84.9021 161.976 84.9478 161.981L84.9781 159.801C84.9833 159.438 84.9888 159.075 84.9946 158.712C83.6615 158.794 82.3061 158.763 80.9739 158.763L80.6669 158.764C78.993 158.772 77.3185 158.748 75.6449 158.714C73.9183 158.677 72.1952 158.621 70.4717 158.51C69.7734 158.465 69.0802 158.405 68.3858 158.328L68.0384 158.288C67.7362 158.252 67.425 158.223 67.1139 158.186ZM85.1322 152.035C81.9215 152.291 78.7279 152.398 75.5086 152.43L75.0255 152.434C72.1807 152.456 69.3124 152.574 66.4608 152.498C66.6313 153.984 66.8013 155.469 66.9727 156.955C67.381 156.936 67.7914 156.936 68.1905 156.921C69.0024 156.892 69.8116 156.884 70.6239 156.883C72.2975 156.879 73.9711 156.893 75.6449 156.89C77.3698 156.886 79.0944 156.857 80.819 156.824C82.2172 156.798 83.6303 156.692 85.0324 156.696L85.1322 152.035V152.035ZM85.2681 145.696C84.896 145.82 84.4568 145.828 83.9752 145.851L82.7323 145.913C82.1562 145.941 81.58 145.968 81.0036 145.989C79.0828 146.06 77.162 146.126 75.2409 146.187C73.2723 146.25 71.2942 146.287 69.3253 146.224C68.3608 146.194 67.4045 146.143 66.4429 146.062C66.2052 146.042 65.9629 146.029 65.7202 146.012C65.9439 147.98 66.1686 149.948 66.3941 151.917C69.232 151.566 72.0919 151.348 74.9263 150.986L77.4892 150.657C80.0509 150.329 82.6105 150.006 85.1815 149.735L85.2681 145.696V145.696ZM85.4049 139.288C84.859 139.423 84.2368 139.416 83.7126 139.45L83.6155 139.456C82.6222 139.532 81.6264 139.57 80.6308 139.595C78.6795 139.643 76.727 139.667 74.7751 139.679L73.6014 139.686C72.0366 139.696 70.4728 139.7 68.9076 139.663C67.9036 139.64 66.9019 139.59 65.8987 139.54C65.5982 139.524 65.291 139.514 64.9828 139.499C65.1925 141.363 65.4043 143.226 65.6157 145.089C65.9453 145.036 66.2764 144.996 66.5921 144.943C67.4006 144.806 68.2077 144.696 69.022 144.598C70.7858 144.385 72.5588 144.233 74.3309 144.104C76.1502 143.971 77.971 143.859 79.7906 143.731L81.0792 143.639C81.5088 143.609 81.9384 143.58 82.3681 143.554C83.1021 143.509 83.9552 143.56 84.6832 143.399C84.8803 143.317 85.0992 143.298 85.3183 143.345L85.4049 139.288V139.288ZM85.5701 131.786C85.3812 132.027 85.0991 132.154 84.7628 132.197C83.0107 132.426 81.2136 132.463 79.4468 132.57L79.1353 132.59C77.311 132.711 75.4856 132.806 73.6599 132.903C71.7845 133.003 69.9093 133.085 68.0323 133.151C67.2354 133.178 66.4346 133.182 65.6365 133.171L65.2947 133.166C64.9669 133.161 64.6237 133.161 64.2797 133.15C64.4701 134.893 64.6623 136.635 64.8573 138.378C65.208 138.339 65.5586 138.31 65.8988 138.274C66.9014 138.167 67.9027 138.062 68.9076 137.982C70.8117 137.831 72.7172 137.741 74.6248 137.646C76.5766 137.549 78.5294 137.484 80.4814 137.393C81.4278 137.348 82.3739 137.293 83.3175 137.205C83.9789 137.144 84.7645 136.918 85.4545 137.001C85.4921 135.263 85.5313 133.524 85.5701 131.786ZM85.724 125.067C85.6942 125.113 85.6592 125.158 85.6168 125.2C84.8455 125.966 83.8948 125.907 82.8726 125.987L82.81 125.992C81.8081 126.077 80.8058 126.157 79.8029 126.23C77.7982 126.376 75.7895 126.477 73.7818 126.568C71.7271 126.661 69.6593 126.725 67.6026 126.683C66.2856 126.655 64.9062 126.66 63.5628 126.531C63.7691 128.45 63.9767 130.37 64.1857 132.288C64.5634 132.217 64.9436 132.162 65.3037 132.105C66.2112 131.962 67.1196 131.817 68.0323 131.712C69.8561 131.501 71.6804 131.303 73.5078 131.125C75.0706 130.973 76.6328 130.818 78.1967 130.679L79.1353 130.598C81.0013 130.44 82.8908 130.18 84.7628 130.141C85.0713 130.135 85.4202 130.304 85.5969 130.57C85.6383 128.735 85.6811 126.901 85.724 125.067ZM85.8536 119.627C85.3771 119.685 84.8637 119.652 84.424 119.666C83.3122 119.703 82.2002 119.736 81.0883 119.769L74.4164 119.967V119.967C72.1448 120.035 69.8653 120.085 67.5929 120.053C66.5932 120.039 65.5892 120.037 64.5899 119.982L64.257 119.962C63.8457 119.935 63.3411 119.931 62.8482 119.88L63.4301 125.297V125.297C64.7669 125.103 66.1446 125.031 67.4702 124.917L67.7534 124.892C69.7083 124.713 71.6726 124.594 73.6311 124.461C75.6401 124.324 77.6463 124.158 79.6525 123.988C80.6553 123.904 81.6579 123.819 82.6599 123.727L82.7836 123.714C83.7301 123.615 84.6202 123.404 85.4584 123.965C85.5811 124.046 85.6771 124.156 85.7429 124.279C85.7795 122.728 85.8153 121.177 85.8536 119.627ZM86.0091 113.305C81.9459 113.469 77.882 113.594 73.8157 113.649C71.5268 113.679 69.2409 113.658 66.9523 113.61C65.96 113.589 64.9594 113.541 63.9678 113.465L63.5964 113.435C63.125 113.395 62.6296 113.366 62.1365 113.318C62.3403 115.181 62.5425 117.043 62.7431 118.906C63.2283 118.816 63.7353 118.774 64.1604 118.719L64.257 118.706C65.3133 118.56 66.3797 118.475 67.4412 118.381C69.5083 118.198 71.5856 118.08 73.6582 117.98C75.7806 117.877 77.9041 117.79 80.0267 117.696L82.1496 117.6C82.5034 117.584 82.8572 117.569 83.211 117.554C83.7166 117.532 84.222 117.512 84.7274 117.491C84.9768 117.481 85.2359 117.447 85.4856 117.459L85.5566 117.45C85.5894 117.446 85.6183 117.442 85.6449 117.439C85.7128 117.387 85.7859 117.344 85.8633 117.312L85.9103 117.293L86.0091 113.305ZM61.4702 107.314C61.6589 108.99 61.8455 110.667 62.0296 112.345C62.6091 112.278 63.1956 112.241 63.749 112.191C64.8647 112.091 65.9857 112.003 67.1049 111.951L69.3416 111.847C70.8326 111.777 72.3236 111.71 73.8157 111.656C77.8993 111.506 81.9827 111.334 86.0639 111.125C86.0927 109.987 86.1224 108.85 86.1527 107.712C85.9568 107.923 85.6738 108.062 85.3019 108.061C81.0174 108.049 76.7294 108.074 72.4453 108.003C70.3009 107.968 68.1589 107.916 66.017 107.805C64.9689 107.751 63.915 107.641 62.8749 107.496C62.4313 107.434 61.9459 107.39 61.4702 107.314ZM60.7845 101.339C60.9859 103.057 61.1835 104.775 61.3778 106.493C61.9099 106.398 62.4596 106.347 62.956 106.279C64.0227 106.133 65.0959 106.017 66.1701 105.956C68.2605 105.837 70.3521 105.777 72.4454 105.733C76.7292 105.641 81.0172 105.642 85.302 105.608C85.7045 105.605 86.0033 105.765 86.1995 106.004C86.2292 104.931 86.2606 103.859 86.2929 102.786C85.8791 102.742 85.4688 102.68 85.0891 102.653C83.9221 102.571 82.7547 102.496 81.5869 102.429C79.1497 102.289 76.7103 102.169 74.2715 102.062C71.8321 101.955 69.3919 101.851 66.9517 101.76L65.8845 101.721C64.1876 101.658 62.4618 101.578 60.7845 101.339ZM60.0172 94.8709C60.2268 96.6103 60.4333 98.3501 60.6393 100.09L60.7019 100.629V100.629C62.7428 100.23 64.8937 100.113 66.9517 100.025C69.3924 99.9208 71.8287 99.867 74.2715 99.8746C76.7118 99.882 79.1485 99.94 81.5868 100.041C82.8052 100.092 84.0235 100.15 85.2411 100.217C85.5759 100.235 85.9685 100.225 86.3725 100.231C86.3812 99.9577 86.3888 99.6843 86.3981 99.4111C86.4352 98.3036 86.4715 97.1961 86.5093 96.0887C85.6857 96.5139 84.6149 96.6854 83.7872 96.8666L83.6928 96.8876C82.3261 97.1961 80.9307 97.396 79.5357 97.5183C76.7962 97.7584 74.0283 97.6687 71.2914 97.4361L70.812 97.3948C68.4086 97.1854 65.9171 96.9199 63.5872 96.3221C62.4774 96.0375 61.3301 95.6391 60.3356 95.0616C60.2322 95.0016 60.1254 94.938 60.0172 94.8709ZM83.158 74.1996C83.1817 74.1055 83.3219 74.0841 83.368 74.172C83.6916 74.79 83.812 75.5317 84.0367 76.1938C84.2785 76.9056 84.5041 77.6227 84.7709 78.326C85.3283 79.7952 85.9858 81.2071 86.7697 82.5681C87.5461 83.9157 85.3723 84.8778 84.801 83.4023C84.2111 81.8798 83.7264 80.3055 83.4331 78.6967C83.2899 77.9117 83.1623 77.1159 83.1209 76.3183C83.0852 75.6333 82.9894 74.8678 83.158 74.1996Z" fill="black"/>
<path fill-rule="evenodd" clip-rule="evenodd" d="M99.0243 44.3067C98.9633 40.858 98.8959 37.3403 98.3859 33.9252C97.8872 30.5864 96.5153 27.5684 94.1578 25.1439C89.1505 19.9939 81.8922 18.7361 75.1359 17.5833L63.5845 15.6123C60.0604 15.0112 56.3008 14.0502 52.7402 14.9028C50.9857 15.3229 49.4958 16.2989 48.134 17.4537C46.8214 18.5667 45.4102 19.762 44.5208 21.2594C43.6298 22.759 43.3233 24.512 43.0337 26.208C42.707 28.1202 42.4532 30.0473 42.273 31.979C41.9116 35.8492 41.8623 39.7485 42.1244 43.6267C42.2514 45.5078 42.4534 47.3835 42.7113 49.2509C42.8392 50.1769 42.9838 51.1005 43.147 52.021C43.1951 52.2924 43.2317 52.5929 43.2811 52.8965C42.9167 53.9381 42.7096 55.0168 42.7263 56.0909C42.7755 59.2548 45.4324 61.2467 48.1109 62.3161C49.6639 62.9362 51.2876 63.3576 52.8136 64.0504C54.4189 64.779 55.5115 65.9602 56.6091 67.3077C58.7023 69.8777 61.0646 72.1875 63.7619 74.1146C69.4807 78.2005 76.724 80.133 83.6629 78.6662C85.3277 78.3143 87.0073 77.7678 88.5039 76.9443C90.0839 76.075 91.272 74.8152 92.2697 73.3258C94.1222 70.5608 95.4507 67.4472 96.4557 64.2788C97.4808 61.0469 98.2085 57.8091 98.6054 54.439C99.0008 51.0799 99.0841 47.6866 99.0243 44.3067V44.3067Z" fill="white"/>
<path fill-rule="evenodd" clip-rule="evenodd" d="M62.1628 3.59899C66.943 2.93809 73.5407 5.08611 75.9213 9.41724C87.2869 6.7241 101.622 6.63589 110.989 15.6013C120.764 26.2362 108.487 40.2584 100.346 43.4199C100.938 46.3151 100.014 64.8634 93.4748 73.1369C88.2851 80.147 76.1995 83.3822 70.6071 75.0092L70.5635 74.9401C69.9643 73.9731 70.4803 74.0042 71.0954 74.7235C76.5715 79.5639 84.0172 79.6465 89.7548 74.5383C100.508 65.2014 99.3993 42.3081 94.2824 29.0639C79.7121 27.4555 64.1119 31.8942 54.0484 42.9181L54.7289 47.0359C54.8449 47.7374 54.9766 48.4384 55.0771 49.1424C55.1414 49.5934 55.1486 50.042 54.8377 50.4072C53.811 51.6126 52.0807 49.8012 50.6571 49.0808C50.2368 49.0214 49.8158 48.9984 49.4029 49.0277C42.5629 49.9132 43.9106 63.2495 51.4281 60.9119C52.0598 60.5164 52.6024 60.6371 52.8475 61.211C54.6393 62.8607 55.8208 65.8029 58.7978 68.6367C59.8482 69.6997 60.8041 70.5891 61.9856 71.4418C62.6796 72.1472 64.7736 72.8664 64.1098 74.0735C62.8545 76.8202 55.452 68.1923 54.1432 65.8063C50.0426 67.4338 45.4983 66.881 41.2488 66.4832C18.8305 65.3117 21.8232 41.5593 40.199 26.5632C43.658 24.0037 47.4744 21.9157 51.4414 20.309C51.983 20.0896 51.7464 19.1958 51.1971 19.4182C48.5723 20.4815 46.0134 21.7471 43.5741 23.2119L43.5704 22.3362C43.5668 20.8612 43.5899 19.3256 43.8448 17.9779C43.9722 17.0441 44.1865 16.0466 44.5164 15.2963C44.9242 12.9959 51.3134 5.09966 62.1628 3.59899ZM49.1037 52.0895C49.4498 51.7589 50.096 52.153 50.4042 52.1432C51.1922 52.2516 51.9408 52.5861 52.5247 52.999C52.9102 53.216 53.1804 53.4199 53.4061 53.6074L53.4123 53.6057C53.4106 53.6057 53.4084 53.6074 53.4066 53.6078L53.4279 53.6223C53.7566 53.857 54.96 55.1793 54.1997 54.8237C54.143 54.7497 54.085 54.6785 54.0265 54.6088C54.0202 54.6183 54.0114 54.6277 54.001 54.6368L54.0437 54.7005C54.6899 55.6775 53.5743 54.6482 53.4026 54.3748C53.3945 54.3814 53.3853 54.3859 53.3763 54.3907L53.5998 54.6641C53.6311 54.7029 53.6556 54.7339 53.676 54.7601L53.7232 54.8059C54.4703 55.544 54.4936 56.2083 53.6256 55.117C53.6598 55.1684 53.6872 55.2229 53.691 55.2712L53.7425 55.3371C54.424 56.2198 53.8696 55.9064 53.531 55.5294L53.5027 55.4969L53.5085 55.5057C53.8235 55.9936 53.1984 55.6513 53.0879 55.3903L53.0833 55.3785C52.9629 55.2798 52.8888 55.169 52.8634 55.1411L52.8587 55.1364C52.2727 54.5329 51.4233 54.0223 50.7018 53.7903C50.5972 53.7703 50.4913 53.7542 50.3844 53.7429C49.9505 53.6456 49.5118 53.5789 49.0686 53.5429C49.0144 53.5364 48.9594 53.4964 48.9183 53.4447C48.2481 53.4219 48.455 53.1458 48.7331 53.0945L48.7379 53.0937L48.6828 53.089C48.2526 53.0468 47.9589 52.8917 48.3938 52.7965L48.4489 52.7855C48.4422 52.7748 48.4362 52.7642 48.4304 52.7536C48.0579 52.7125 48.3009 52.3486 48.5077 52.4366C48.4207 52.1507 48.8183 52.2934 48.868 52.251C48.9058 52.2088 48.9528 52.1715 48.9799 52.1695C49.0997 52.0845 49.0416 52.0922 49.1037 52.0895ZM51.3828 47.461L51.2955 47.5122C51.2249 47.5536 51.1523 47.5812 51.0794 47.5974C51.1823 47.6414 51.284 47.689 51.3846 47.7398C51.383 47.6777 51.3818 47.6156 51.3818 47.5537L51.3828 47.461Z" fill="black"/>
<path fill-rule="evenodd" clip-rule="evenodd" d="M85.4635 66.3161C84.3352 66.6446 83.1241 66.674 81.974 66.3347C80.9308 66.027 79.8597 65.3499 79.092 64.4539C78.41 63.6579 77.9683 62.6906 77.9856 61.658C77.9876 61.5401 78.0295 61.4417 78.0941 61.3653C78.1635 61.283 78.2606 61.2265 78.3645 61.202C78.4714 61.1768 78.5844 61.1857 78.6807 61.2297C78.7678 61.2695 78.8424 61.337 78.8891 61.4358C79.0071 61.5915 79.1246 61.745 79.2426 61.8942C80.1913 63.0717 81.11 63.9516 82.5365 64.2672C83.3105 64.4385 84.0836 64.3625 84.7928 64.1012C85.5521 63.8215 86.2384 63.3297 86.7763 62.7003C87.0193 62.4159 87.3063 62.2998 87.5869 62.2978C87.9048 62.2956 88.2191 62.4441 88.4559 62.6815C88.6886 62.9148 88.8445 63.2319 88.8586 63.5635C88.871 63.8546 88.7765 64.1587 88.5252 64.43C87.6973 65.3235 86.6244 65.9782 85.4635 66.3161ZM85.4286 51.5693C86.5852 52.2759 88.3475 53.9236 87.1033 55.6754C85.6387 57.2201 83.53 55.449 82.4909 54.6481C81.5274 54.0273 80.4449 55.6239 81.3388 56.3487C88.8474 61.9362 91.8945 51.7541 86.0136 50.7385C85.3661 50.6266 85.1256 51.3507 85.4286 51.5693ZM74.6093 48.4601C74.2376 48.2211 73.8003 48.1391 73.3157 48.3607C72.937 48.5338 72.2727 49.1109 71.8105 49.8695C71.4942 50.3885 71.27 50.9973 71.3167 51.6315C71.3275 51.7788 71.2734 51.8874 71.188 51.9677C71.1205 52.0311 71.0231 52.0777 70.9086 52.0923C70.8115 52.1046 70.7027 52.0935 70.6143 52.0657C70.4461 52.013 70.3571 51.9033 70.3236 51.8138C69.9999 50.9498 70.1393 49.9857 70.5021 49.1159C70.9916 47.942 71.8807 46.9587 72.4631 46.6417C73.4598 46.099 74.6357 46.0741 75.6338 46.6269C76.4835 47.0974 77.0148 47.8571 77.5432 48.6314C77.6555 48.7961 77.767 48.9595 77.8822 49.12C78.1131 49.4417 78.1361 49.7607 78.0467 50.0342C77.9476 50.3373 77.695 50.5931 77.3792 50.7269C77.0872 50.8506 76.7484 50.868 76.4485 50.7409C76.1952 50.6335 75.9628 50.4242 75.8157 50.0691C75.568 49.4709 75.1553 48.811 74.6093 48.4601V48.4601ZM93.489 49.7908C93.2344 49.9241 93.0352 49.9643 92.7528 49.8793C92.5966 49.8321 92.4423 49.7418 92.3215 49.6203C92.2017 49.4999 92.1153 49.3502 92.0817 49.1842C91.9991 48.7743 91.776 48.3907 91.458 48.1406C91.1863 47.9268 90.8433 47.8135 90.4628 47.8774C90.0523 47.9463 89.6612 48.2109 89.3918 48.523C89.3017 48.6274 89.2311 48.7459 89.1602 48.8637C89.0275 49.084 88.8985 49.2887 88.7154 49.4504C88.646 49.512 88.5414 49.5546 88.4402 49.5546C88.399 49.5546 88.3572 49.5479 88.3174 49.5354C87.9088 49.1232 87.8302 48.8105 87.8434 48.5003C87.8572 48.175 87.9848 47.8457 88.191 47.5384C88.6746 46.8177 89.5928 46.2267 90.2125 46.0929C91.0611 45.9096 91.9038 46.1296 92.5795 46.606C93.2748 47.0962 93.7899 47.8572 93.9505 48.7148C93.9892 48.9214 93.9728 49.1444 93.8945 49.3377C93.818 49.5266 93.6847 49.6883 93.489 49.7908ZM76.4809 40.7754C75.9716 41.2742 75.3689 41.3514 74.7591 41.4201C74.4203 41.4586 74.1498 41.4897 73.8837 41.5501C73.1521 41.716 72.429 41.966 71.7693 42.3261C71.0796 42.7024 70.3281 43.1563 69.7874 43.7378C69.6588 43.8762 69.5376 44.0213 69.4163 44.1669C69.3056 44.2995 69.199 44.4273 69.0866 44.5504C68.9576 44.6919 68.8351 44.8402 68.7132 44.9881C68.6378 45.1128 68.6229 45.1435 68.6078 45.1755C68.5849 45.2235 68.5584 45.2772 68.528 45.3349C68.4865 45.4138 68.4378 45.5002 68.3868 45.5785C68.302 45.7217 68.2565 45.7612 68.2172 45.7788C68.1519 45.808 68.09 45.8224 68.03 45.8146C67.9737 45.8073 67.9207 45.7801 67.8683 45.7357C67.6068 45.5136 67.5297 45.1492 67.5376 44.7624C67.5496 44.1755 67.765 43.5256 67.9636 43.1261C68.4253 42.1979 69.0656 41.2329 69.8355 40.5401C70.714 39.7493 71.6752 39.1506 72.7792 38.738C73.4652 38.4816 74.2596 38.2462 75.007 38.2759C75.545 38.2973 76.0586 38.4581 76.4828 38.8595C76.7432 39.1059 76.8683 39.4564 76.8683 39.8067C76.8683 40.1639 76.7384 40.5233 76.4809 40.7754ZM94.5247 45.3422C94.4923 45.3956 94.4475 45.4324 94.3976 45.4544C94.3453 45.4776 94.287 45.4843 94.231 45.4748C94.1752 45.4653 94.1222 45.4399 94.0801 45.4011C94.0398 45.3639 94.0091 45.3145 93.9954 45.254C93.6573 43.7614 93.0008 42.6509 91.5995 41.9348C90.9102 41.5825 90.1176 41.3587 89.3672 41.1802C89.1492 41.1284 88.9188 41.0948 88.6868 41.0607C87.9596 40.954 87.2271 40.8318 86.7531 40.241C86.4674 39.8851 86.3475 39.4299 86.4153 39.0137C86.4791 38.6218 86.707 38.2624 87.1212 38.0471C88.1523 37.5112 89.4338 38.037 90.4751 38.485C90.5523 38.5182 90.6281 38.5508 90.7023 38.5823C91.7206 39.0143 92.6494 39.5846 93.4129 40.4002C94.0186 41.0472 94.5799 42.0037 94.8059 42.9877C94.994 43.8063 94.9498 44.642 94.5247 45.3422Z" fill="black"/>
<path fill-rule="evenodd" clip-rule="evenodd" d="M85.5971 57.5672C83.8938 56.7961 80.8351 57.469 79.7247 57.7365C77.1432 58.3588 74.5461 59.7035 73.7436 61.8103C72.8392 64.1846 74.6437 64.932 74.9091 64.8099C76.6962 64.9365 78.8244 63.8073 80.6971 63.5158C82.2174 63.2772 83.8212 63.0689 85.2456 62.257C86.2856 62.832 88.6345 63.1428 90.5301 63.6456C92.1446 64.0736 92.8441 65.0017 94.3408 64.8044C96.1346 64.5679 95.4004 60.7757 93.4012 59.2395C91.2131 57.5583 87.5124 56.8764 85.5971 57.5672ZM88.9697 73.7817C87.4795 74.1468 87.3794 70.8639 87.2125 69.7041C87.082 68.798 86.3464 66.4612 84.4816 66.562C82.6167 66.6628 81.9157 68.6206 82.0103 69.8383C82.0717 70.6279 82.7956 74.6278 80.4848 75.1338C79.0116 75.1285 77.3072 75.0286 75.7581 74.7415C73.9348 74.3265 71.564 72.8734 70.9378 75.7351C70.7124 76.765 78.7438 79.825 82.3078 80.1018C85.9221 80.838 90.151 79.706 92.7243 76.9268C93.3097 76.2946 94.9586 73.6703 95.076 73.0273C95.3229 71.6764 94.7514 70.8071 93.0884 71.2833C91.9136 71.9138 89.928 73.5468 88.9697 73.7817Z" fill="black"/>
<path fill-rule="evenodd" clip-rule="evenodd" d="M96.1762 54.1907C93.8775 55.3034 90.6706 53.6622 89.125 51.9431C88.5625 51.3171 88.1284 49.5263 88.3448 48.3904C88.931 45.3144 91.1335 43.4683 93.4586 42.8379C96.6818 41.9638 99.9254 44.1782 99.5473 46.7912C99.1887 49.2678 98.6454 52.8601 96.1762 54.1907M80.5305 48.2819C80.3462 51.6341 77.6679 54.5682 74.4668 55.4375C69.3092 56.884 66.7603 53.2399 65.6058 49.3141C65.491 48.924 65.2213 47.7334 65.945 46.7121C68.7912 42.6949 75.7161 43.3796 79.1749 44.4825C80.1873 45.4556 80.6011 46.8601 80.5305 48.2819M98.6736 42.5001C98.6721 42.5021 98.6703 42.5038 98.6687 42.5058C98.6569 42.4986 98.6453 42.4912 98.6332 42.4841C98.6465 42.4897 98.6606 42.4944 98.6736 42.5001M102.989 42.8876C102.689 39.4746 92.0348 40.7815 90.7891 41.0612C87.3896 42.0662 84.4533 44.8003 80.6524 43.5984C76.7142 39.1858 63.452 40.4513 60.6718 42.699C60.1455 42.4915 59.5056 42.6028 58.8276 42.7986C55.3456 42.6723 39.4498 43.8787 42.7011 48.3455C43.1946 48.6896 43.6876 48.3395 43.7013 47.6307C60.6507 41.481 59.0077 47.2412 61.0178 46.5685C61.3247 46.6573 61.645 46.7135 61.9251 46.7726C63.4809 47.2757 64.0092 47.1202 64.2141 48.8757C65.6222 62.4308 83.5812 57.7524 82.1082 46.6338C83.5666 46.5531 84.8423 45.9193 86.3845 46.5382C87.4553 57.0122 95.8411 57.435 98.3647 53.8041C100.268 51.284 99.5131 47.4809 102.129 45.4984C103.162 46.367 103.228 43.4355 102.989 42.8876" fill="black"/>
</svg>
