<svg width="64" height="61" viewBox="0 0 64 61" fill="none" xmlns="http://www.w3.org/2000/svg">
<path d="M11.136 18.0235L28.8085 8.19433L26.6581 4.68073L8.98133 14.5099L11.1317 18.0235H11.136ZM8.53333 38.6333V22.3667H4.26667V38.6333H8.53333ZM35.1915 8.19433L52.8683 18.0235L55.0187 14.5099L37.3419 4.68073L35.1915 8.19433V8.19433ZM55.4667 22.3667V38.6333H59.7333V22.3667H55.4667ZM54.3915 42.1307L35.1915 52.8057L37.3419 56.3193L56.5419 45.6443L54.3915 42.1307ZM28.8085 52.8057L11.1317 42.9765L8.98133 46.4901L26.6581 56.3193L28.8085 52.8057ZM28.0917 8.02353L6.7584 38.5235L10.3083 40.7765L31.6416 10.2765L28.0917 8.02353V8.02353ZM57.2416 38.5235L35.9083 8.02353L32.3584 10.2765L53.6917 40.7765L57.2416 38.5235ZM10.6667 44.7333H53.3333V40.6667H10.6667V44.7333ZM32 8.13333C31.4342 8.13333 30.8916 7.91911 30.4915 7.53778C30.0914 7.15646 29.8667 6.63927 29.8667 6.1H25.6C25.6 7.71782 26.2743 9.26938 27.4745 10.4134C28.6748 11.5573 30.3026 12.2 32 12.2V8.13333ZM34.1333 6.1C34.1333 6.63927 33.9086 7.15646 33.5085 7.53778C33.1084 7.91911 32.5658 8.13333 32 8.13333V12.2C33.6974 12.2 35.3253 11.5573 36.5255 10.4134C37.7257 9.26938 38.4 7.71782 38.4 6.1H34.1333ZM32 4.06667C32.5658 4.06667 33.1084 4.28089 33.5085 4.66222C33.9086 5.04354 34.1333 5.56073 34.1333 6.1H38.4C38.4 4.48218 37.7257 2.93062 36.5255 1.78665C35.3253 0.642677 33.6974 0 32 0V4.06667ZM32 0C30.3026 0 28.6748 0.642677 27.4745 1.78665C26.2743 2.93062 25.6 4.48218 25.6 6.1H29.8667C29.8667 5.56073 30.0914 5.04354 30.4915 4.66222C30.8916 4.28089 31.4342 4.06667 32 4.06667V0ZM57.6 20.3333C57.0342 20.3333 56.4916 20.1191 56.0915 19.7378C55.6914 19.3565 55.4667 18.8393 55.4667 18.3H51.2C51.2 19.9178 51.8743 21.4694 53.0745 22.6134C54.2748 23.7573 55.9026 24.4 57.6 24.4V20.3333ZM59.7333 18.3C59.7333 18.8393 59.5086 19.3565 59.1085 19.7378C58.7084 20.1191 58.1658 20.3333 57.6 20.3333V24.4C59.2974 24.4 60.9253 23.7573 62.1255 22.6134C63.3257 21.4694 64 19.9178 64 18.3H59.7333ZM57.6 16.2667C58.1658 16.2667 58.7084 16.4809 59.1085 16.8622C59.5086 17.2435 59.7333 17.7607 59.7333 18.3H64C64 16.6822 63.3257 15.1306 62.1255 13.9866C60.9253 12.8427 59.2974 12.2 57.6 12.2V16.2667ZM57.6 12.2C55.9026 12.2 54.2748 12.8427 53.0745 13.9866C51.8743 15.1306 51.2 16.6822 51.2 18.3H55.4667C55.4667 17.7607 55.6914 17.2435 56.0915 16.8622C56.4916 16.4809 57.0342 16.2667 57.6 16.2667V12.2ZM57.6 44.7333C57.0342 44.7333 56.4916 44.5191 56.0915 44.1378C55.6914 43.7565 55.4667 43.2393 55.4667 42.7H51.2C51.2 44.3178 51.8743 45.8694 53.0745 47.0134C54.2748 48.1573 55.9026 48.8 57.6 48.8V44.7333ZM59.7333 42.7C59.7333 43.2393 59.5086 43.7565 59.1085 44.1378C58.7084 44.5191 58.1658 44.7333 57.6 44.7333V48.8C59.2974 48.8 60.9253 48.1573 62.1255 47.0134C63.3257 45.8694 64 44.3178 64 42.7H59.7333ZM57.6 40.6667C58.1658 40.6667 58.7084 40.8809 59.1085 41.2622C59.5086 41.6435 59.7333 42.1607 59.7333 42.7H64C64 41.0822 63.3257 39.5306 62.1255 38.3866C60.9253 37.2427 59.2974 36.6 57.6 36.6V40.6667ZM57.6 36.6C55.9026 36.6 54.2748 37.2427 53.0745 38.3866C51.8743 39.5306 51.2 41.0822 51.2 42.7H55.4667C55.4667 42.1607 55.6914 41.6435 56.0915 41.2622C56.4916 40.8809 57.0342 40.6667 57.6 40.6667V36.6ZM32 56.9333C31.4342 56.9333 30.8916 56.7191 30.4915 56.3378C30.0914 55.9565 29.8667 55.4393 29.8667 54.9H25.6C25.6 56.5178 26.2743 58.0694 27.4745 59.2134C28.6748 60.3573 30.3026 61 32 61V56.9333ZM34.1333 54.9C34.1333 55.4393 33.9086 55.9565 33.5085 56.3378C33.1084 56.7191 32.5658 56.9333 32 56.9333V61C33.6974 61 35.3253 60.3573 36.5255 59.2134C37.7257 58.0694 38.4 56.5178 38.4 54.9H34.1333ZM32 52.8667C32.5658 52.8667 33.1084 53.0809 33.5085 53.4622C33.9086 53.8435 34.1333 54.3607 34.1333 54.9H38.4C38.4 53.2822 37.7257 51.7306 36.5255 50.5866C35.3253 49.4427 33.6974 48.8 32 48.8V52.8667ZM32 48.8C30.3026 48.8 28.6748 49.4427 27.4745 50.5866C26.2743 51.7306 25.6 53.2822 25.6 54.9H29.8667C29.8667 54.3607 30.0914 53.8435 30.4915 53.4622C30.8916 53.0809 31.4342 52.8667 32 52.8667V48.8ZM6.4 44.7333C5.83421 44.7333 5.29158 44.5191 4.89151 44.1378C4.49143 43.7565 4.26667 43.2393 4.26667 42.7H0C0 44.3178 0.674284 45.8694 1.87452 47.0134C3.07475 48.1573 4.70261 48.8 6.4 48.8V44.7333ZM8.53333 42.7C8.53333 43.2393 8.30857 43.7565 7.90849 44.1378C7.50842 44.5191 6.9658 44.7333 6.4 44.7333V48.8C8.09739 48.8 9.72525 48.1573 10.9255 47.0134C12.1257 45.8694 12.8 44.3178 12.8 42.7H8.53333ZM6.4 40.6667C6.9658 40.6667 7.50842 40.8809 7.90849 41.2622C8.30857 41.6435 8.53333 42.1607 8.53333 42.7H12.8C12.8 41.0822 12.1257 39.5306 10.9255 38.3866C9.72525 37.2427 8.09739 36.6 6.4 36.6V40.6667ZM6.4 36.6C4.70261 36.6 3.07475 37.2427 1.87452 38.3866C0.674284 39.5306 0 41.0822 0 42.7H4.26667C4.26667 42.1607 4.49143 41.6435 4.89151 41.2622C5.29158 40.8809 5.83421 40.6667 6.4 40.6667V36.6ZM6.4 20.3333C5.83421 20.3333 5.29158 20.1191 4.89151 19.7378C4.49143 19.3565 4.26667 18.8393 4.26667 18.3H0C0 19.9178 0.674284 21.4694 1.87452 22.6134C3.07475 23.7573 4.70261 24.4 6.4 24.4V20.3333ZM8.53333 18.3C8.53333 18.8393 8.30857 19.3565 7.90849 19.7378C7.50842 20.1191 6.9658 20.3333 6.4 20.3333V24.4C8.09739 24.4 9.72525 23.7573 10.9255 22.6134C12.1257 21.4694 12.8 19.9178 12.8 18.3H8.53333ZM6.4 16.2667C6.9658 16.2667 7.50842 16.4809 7.90849 16.8622C8.30857 17.2435 8.53333 17.7607 8.53333 18.3H12.8C12.8 16.6822 12.1257 15.1306 10.9255 13.9866C9.72525 12.8427 8.09739 12.2 6.4 12.2V16.2667ZM6.4 12.2C4.70261 12.2 3.07475 12.8427 1.87452 13.9866C0.674284 15.1306 0 16.6822 0 18.3H4.26667C4.26667 17.7607 4.49143 17.2435 4.89151 16.8622C5.29158 16.4809 5.83421 16.2667 6.4 16.2667V12.2Z" fill="black"/>
</svg>
